%YAML 1.1
%TAG !u! tag:unity3d.com,2011:
--- !u!114 &11400000
MonoBehaviour:
  m_ObjectHideFlags: 0
  m_CorrespondingSourceObject: {fileID: 0}
  m_PrefabInstance: {fileID: 0}
  m_PrefabAsset: {fileID: 0}
  m_GameObject: {fileID: 0}
  m_Enabled: 1
  m_EditorHideFlags: 0
  m_Script: {fileID: 11500000, guid: 26705c03882be4970b99192835108914, type: 3}
  m_Name: West To North
  m_EditorClassIdentifier: 
  TrackSize: {x: 600, y: 600}
  Tracks:
  - {fileID: 601395370916721065, guid: d903bb5a8a4744a68baef0b0a69297e8, type: 3}
  EntryDirection: 3
  ExitDirection: 0
